{
  "Version": "1.0",
  "IdentityManager": {
    "Default": {}
  },
"CredentialsProvider": {
  "CognitoIdentity": {
    "Default": {
      "PoolId": "ap-southeast-1:58b44d83-285b-4828-b0ca-901baeb2a855",
      "Region": ".APSoutheast1"
    }
  }
},
  "S3TransferUtility": {
    "Default": {
      "Bucket": "eatwithwho-uploads-development",
      "Region": ".APSoutheast1"
    }
  }
}
